…
no_stopwords3 <- general %>%
  as_tibble() %>%
  filter(!(value %in% stop_words)) %>%
  group_by(value) %>%
  summarise(freq = n()) %>%
  arrange(desc(freq)) 

general_25 <- no_stopwords3 %>%
  slice_max(freq, n = 25)

general_25
```

    ## # A tibble: 25 × 2
    ##    value     freq
    ##    <chr>    <int>
    ##  1 I       590664
    ##  2 br      136733
    ##  3 product 100609
    ##  4 The      94872
    ##  5 It       81421
    ##  6 use      80636
    ##  7 like     76352
    ##  8 great    71485
    ##  9 This     69662
    ## 10 one      64936
    ## # ℹ 15 more rows
